,date,city,rent,product
0,2021-01-01,Giresun,4,1294
1,2021-01-02,Kars,12,1217
2,2021-01-03,Manisa,4,1944
3,2021-01-04,Kırşehir,17,1026
4,2021-01-05,Niğde,17,1802
5,2021-01-06,Kırşehir,11,1352
6,2021-01-07,Kütahya,7,1098
7,2021-01-08,Yozgat,14,1002
8,2021-01-09,Iğdır,12,1332
9,2021-01-10,Tunceli,3,1374
10,2021-01-11,İzmir,13,1413
11,2021-01-12,Ordu,9,1587
12,2021-01-13,Kars,10,1823
13,2021-01-14,Gaziantep,10,1004
14,2021-01-15,Bilecik,6,1757
15,2021-01-16,Edirne,5,1466
16,2021-01-17,Edirne,14,1073
17,2021-01-18,Giresun,15,1730
18,2021-01-19,Kütahya,1,1794
19,2021-01-20,Antalya,7,1365
20,2021-01-21,Erzurum,6,1548
21,2021-01-22,Ordu,5,1799
22,2021-01-23,Eskişehir,15,1786
23,2021-01-24,Hatay,13,1576
24,2021-01-25,Nevşehir,7,1243
25,2021-01-26,Artvin,6,1705
26,2021-01-27,Uşak,3,1804
27,2021-01-28,Van,7,1237
28,2021-01-29,Konya,17,1849
29,2021-01-30,Bartın,14,1672
30,2021-01-31,Adıyaman,9,1346
31,2021-02-01,Karaman,9,1529
32,2021-02-02,Van,14,1752
33,2021-02-03,Bilecik,6,1374
34,2021-02-04,Çankırı,2,1807
35,2021-02-05,Şırnak,8,1372
36,2021-02-06,Nevşehir,16,1700
37,2021-02-07,Hakkari,17,1714
38,2021-02-08,Aydın,7,1339
39,2021-02-09,Kütahya,2,1120
40,2021-02-10,Sivas,6,1811
41,2021-02-11,Erzurum,15,1875
42,2021-02-12,Şırnak,5,1922
43,2021-02-13,Tekirdağ,7,1060
44,2021-02-14,Rize,1,1549
45,2021-02-15,Çankırı,4,1760
46,2021-02-16,Manisa,4,1944
47,2021-02-17,Mardin,9,1597
48,2021-02-18,Yozgat,4,1189
49,2021-02-19,Uşak,15,1660
50,2021-02-20,Eskişehir,13,1283
51,2021-02-21,Aydın,8,1081
52,2021-02-22,Elazığ,6,1385
53,2021-02-23,Şırnak,1,1013
54,2021-02-24,Sinop,2,1421
55,2021-02-25,Edirne,7,1221
56,2021-02-26,İzmir,16,1959
57,2021-02-27,Bilecik,2,1395
58,2021-02-28,İçel (Mersin),4,1806
59,2021-03-01,Rize,4,1278
60,2021-03-02,Kayseri,5,1340
61,2021-03-03,Karaman,12,1674
62,2021-03-04,Burdur,1,1940
63,2021-03-05,Sivas,1,1815
64,2021-03-06,Mardin,17,1723
65,2021-03-07,Konya,12,1397
66,2021-03-08,Burdur,8,1218
67,2021-03-09,Adana,17,1254
68,2021-03-10,Kayseri,15,1789
69,2021-03-11,Kilis,5,1253
70,2021-03-12,Hakkari,9,1057
71,2021-03-13,Adana,16,1965
72,2021-03-14,Siirt,17,1987
73,2021-03-15,Iğdır,7,1929
74,2021-03-16,Gümüşhane,3,1141
75,2021-03-17,Amasya,12,1173
76,2021-03-18,Ağrı,16,1764
77,2021-03-19,Kırıkkale,7,1708
78,2021-03-20,Aydın,1,1964
79,2021-03-21,Kahramanmaraş,6,1660
80,2021-03-22,Batman,5,1220
81,2021-03-23,Diyarbakır,7,1867
82,2021-03-24,Kırklareli,6,1288
83,2021-03-25,Karaman,11,1302
84,2021-03-26,Ağrı,3,1788
85,2021-03-27,Kırşehir,2,1184
86,2021-03-28,Kırşehir,1,1228
87,2021-03-29,Kırklareli,8,1921
88,2021-03-30,Tunceli,1,1030
89,2021-03-31,Kahramanmaraş,8,1410
90,2021-04-01,Tokat,3,1694
91,2021-04-02,Batman,17,1698
92,2021-04-03,Bartın,6,1371
93,2021-04-04,Yalova,10,1288
94,2021-04-05,Çanakkale,12,1523
95,2021-04-06,Kırıkkale,16,1509
96,2021-04-07,Kahramanmaraş,12,1131
97,2021-04-08,Mardin,16,1217
98,2021-04-09,Aksaray,6,1765
99,2021-04-10,Çorum,10,1894
100,2021-04-11,Muş,14,1452
101,2021-04-12,Karaman,14,1263
102,2021-04-13,Tokat,15,1192
103,2021-04-14,Rize,17,1952
104,2021-04-15,Kocaeli,3,1339
105,2021-04-16,Zonguldak,3,1735
106,2021-04-17,Tekirdağ,9,1433
107,2021-04-18,Adana,11,1192
108,2021-04-19,Zonguldak,10,1666
109,2021-04-20,Balıkesir,8,1498
110,2021-04-21,Aydın,5,1564
111,2021-04-22,Erzincan,6,1819
112,2021-04-23,Kırıkkale,14,1735
113,2021-04-24,Adana,10,1519
114,2021-04-25,Antalya,10,1186
115,2021-04-26,İzmir,11,1950
116,2021-04-27,Aydın,1,1445
117,2021-04-28,Adana,13,1065
118,2021-04-29,Bayburt,12,1159
119,2021-04-30,Bitlis,7,1409
120,2021-05-01,Sakarya,2,1855
121,2021-05-02,Rize,4,1807
122,2021-05-03,Sinop,4,1497
123,2021-05-04,Hakkari,10,1660
124,2021-05-05,Muğla,15,1556
125,2021-05-06,Nevşehir,2,1970
126,2021-05-07,Yalova,3,1740
127,2021-05-08,Denizli,3,1212
128,2021-05-09,Düzce,12,1318
129,2021-05-10,Çankırı,17,1471
130,2021-05-11,Tekirdağ,15,1402
131,2021-05-12,Isparta,9,1473
132,2021-05-13,Hatay,1,1480
133,2021-05-14,Bilecik,14,1357
134,2021-05-15,Rize,10,1091
135,2021-05-16,Batman,7,1143
136,2021-05-17,Tekirdağ,17,1009
137,2021-05-18,Sivas,4,1520
138,2021-05-19,Kırıkkale,16,1411
139,2021-05-20,Karabük,3,1906
140,2021-05-21,Tekirdağ,14,1517
141,2021-05-22,Elazığ,8,1721
142,2021-05-23,Erzurum,5,1628
143,2021-05-24,Ardahan,14,1826
144,2021-05-25,Kahramanmaraş,9,1676
145,2021-05-26,Yozgat,13,1070
146,2021-05-27,Isparta,14,1457
147,2021-05-28,Isparta,9,1447
148,2021-05-29,Ağrı,5,1403
149,2021-05-30,Burdur,15,1452
150,2021-05-31,Edirne,7,1145
151,2021-06-01,Aydın,1,1283
152,2021-06-02,Çanakkale,2,1234
153,2021-06-03,Kırklareli,3,1001
154,2021-06-04,Kastamonu,10,1329
155,2021-06-05,Çorum,17,1289
156,2021-06-06,Zonguldak,8,1239
157,2021-06-07,Sinop,8,1727
158,2021-06-08,Sinop,7,1126
159,2021-06-09,Muğla,8,1238
160,2021-06-10,Bayburt,6,1956
161,2021-06-11,Antalya,15,1579
162,2021-06-12,Siirt,15,1256
163,2021-06-13,Bursa,1,1285
164,2021-06-14,Aksaray,9,1045
165,2021-06-15,İzmir,16,1821
166,2021-06-16,Trabzon,14,1703
167,2021-06-17,Hatay,7,1316
168,2021-06-18,Giresun,3,1242
169,2021-06-19,Kars,14,1145
170,2021-06-20,Aydın,12,1351
171,2021-06-21,Karabük,1,1923
172,2021-06-22,Bitlis,17,1015
173,2021-06-23,Burdur,11,1699
174,2021-06-24,Şırnak,14,1245
175,2021-06-25,Konya,15,1555
176,2021-06-26,Mardin,16,1903
177,2021-06-27,Antalya,14,1169
178,2021-06-28,Iğdır,8,1029
179,2021-06-29,Mardin,5,1717
180,2021-06-30,Sivas,1,1425
181,2021-07-01,Erzincan,15,1025
182,2021-07-02,Kırklareli,16,1050
183,2021-07-03,Isparta,6,1723
184,2021-07-04,Adana,11,1709
185,2021-07-05,Artvin,14,1395
186,2021-07-06,Artvin,15,1736
187,2021-07-07,Balıkesir,3,1658
188,2021-07-08,Balıkesir,6,1626
189,2021-07-09,Sinop,2,1119
190,2021-07-10,Yalova,12,1971
191,2021-07-11,Bilecik,16,1696
192,2021-07-12,Karaman,9,1917
193,2021-07-13,Yalova,6,1887
194,2021-07-14,Bursa,5,1122
195,2021-07-15,Gümüşhane,1,1407
196,2021-07-16,Van,14,1275
197,2021-07-17,Çorum,12,1397
198,2021-07-18,Ordu,9,1452
199,2021-07-19,Kayseri,12,1004
200,2021-07-20,Ankara,10,1421
201,2021-07-21,Iğdır,14,1793
202,2021-07-22,Denizli,11,1334
203,2021-07-23,Kahramanmaraş,12,1902
204,2021-07-24,Hatay,1,1814
205,2021-07-25,İstanbul,12,1675
206,2021-07-26,Karaman,3,1383
207,2021-07-27,Kırklareli,14,1288
208,2021-07-28,Aksaray,9,1069
209,2021-07-29,İstanbul,17,1032
210,2021-07-30,Trabzon,6,1127
211,2021-07-31,Edirne,1,1321
212,2021-08-01,Samsun,15,1969
213,2021-08-02,Bursa,14,1013
214,2021-08-03,Sakarya,17,1807
215,2021-08-04,Kayseri,12,1407
216,2021-08-05,Kastamonu,10,1525
217,2021-08-06,Şırnak,13,1800
218,2021-08-07,Ardahan,4,1624
219,2021-08-08,Erzincan,17,1592
220,2021-08-09,Kırşehir,5,1197
221,2021-08-10,Çorum,17,1711
222,2021-08-11,Burdur,3,1943
223,2021-08-12,Isparta,14,1191
224,2021-08-13,Şırnak,10,1089
225,2021-08-14,Hatay,3,1086
226,2021-08-15,Ardahan,1,1461
227,2021-08-16,Kastamonu,1,1549
228,2021-08-17,Karaman,4,1414
229,2021-08-18,Kırıkkale,11,1932
230,2021-08-19,Kütahya,17,1947
231,2021-08-20,Ordu,6,1485
232,2021-08-21,Kocaeli,16,1096
233,2021-08-22,Bayburt,1,1938
234,2021-08-23,Ordu,14,1730
235,2021-08-24,Isparta,14,1433
236,2021-08-25,Samsun,6,1731
237,2021-08-26,Çorum,8,1000
238,2021-08-27,İstanbul,12,1646
239,2021-08-28,Balıkesir,2,1908
240,2021-08-29,Sakarya,8,1019
241,2021-08-30,Yalova,9,1297
242,2021-08-31,Denizli,3,1275
243,2021-09-01,Samsun,8,1155
244,2021-09-02,Şırnak,8,1215
245,2021-09-03,Batman,10,1767
246,2021-09-04,Çorum,10,1917
247,2021-09-05,Balıkesir,12,1410
248,2021-09-06,Karabük,17,1236
249,2021-09-07,Amasya,8,1291
250,2021-09-08,Kilis,15,1854
251,2021-09-09,Hakkari,16,1360
252,2021-09-10,Kayseri,7,1279
253,2021-09-11,Çanakkale,9,1844
254,2021-09-12,Hatay,4,1732
255,2021-09-13,Karabük,7,1930
256,2021-09-14,Zonguldak,4,1545
257,2021-09-15,Erzincan,8,1219
258,2021-09-16,Ağrı,12,1252
259,2021-09-17,Bitlis,7,1235
260,2021-09-18,Iğdır,3,1773
261,2021-09-19,Kastamonu,3,1351
262,2021-09-20,Balıkesir,7,1662
263,2021-09-21,Bitlis,5,1262
264,2021-09-22,Giresun,3,1206
265,2021-09-23,Yalova,11,1684
266,2021-09-24,Sinop,10,1488
267,2021-09-25,Konya,7,1747
268,2021-09-26,Hakkari,9,1235
269,2021-09-27,Zonguldak,8,1494
270,2021-09-28,Elazığ,11,1683
271,2021-09-29,Çankırı,16,1336
272,2021-09-30,Bartın,14,1025
273,2021-10-01,Muğla,3,1232
274,2021-10-02,Diyarbakır,4,1646
275,2021-10-03,Kütahya,7,1624
276,2021-10-04,Gümüşhane,1,1838
277,2021-10-05,Şırnak,6,1911
278,2021-10-06,Edirne,14,1497
279,2021-10-07,Sivas,2,1775
280,2021-10-08,Sinop,1,1653
281,2021-10-09,Iğdır,11,1643
282,2021-10-10,Çanakkale,11,1847
283,2021-10-11,Erzincan,9,1813
284,2021-10-12,Yozgat,15,1267
285,2021-10-13,Aksaray,9,1639
286,2021-10-14,Bolu,7,1196
287,2021-10-15,Batman,11,1110
288,2021-10-16,Karabük,1,1974
289,2021-10-17,Muğla,14,1785
290,2021-10-18,Isparta,16,1027
291,2021-10-19,Ankara,12,1716
292,2021-10-20,Karaman,7,1640
293,2021-10-21,Şanlıurfa,8,1686
294,2021-10-22,Ardahan,14,1072
295,2021-10-23,Tokat,1,1384
296,2021-10-24,Iğdır,16,1326
297,2021-10-25,Diyarbakır,6,1687
298,2021-10-26,Muğla,8,1510
299,2021-10-27,Van,4,1574
300,2021-10-28,Hakkari,1,1497
301,2021-10-29,Karaman,4,1780
302,2021-10-30,Yalova,11,1718
303,2021-10-31,Bitlis,13,1325
304,2021-11-01,Niğde,4,1274
305,2021-11-02,Malatya,12,1319
306,2021-11-03,Sakarya,11,1821
307,2021-11-04,Edirne,7,1731
308,2021-11-05,Niğde,11,1272
309,2021-11-06,Bingöl,15,1037
310,2021-11-07,Elazığ,10,1534
311,2021-11-08,Denizli,16,1951
312,2021-11-09,Sivas,7,1950
313,2021-11-10,Gümüşhane,17,1056
314,2021-11-11,Tunceli,7,1568
315,2021-11-12,Sakarya,17,1819
316,2021-11-13,Manisa,16,1258
317,2021-11-14,Tekirdağ,15,1884
318,2021-11-15,Nevşehir,4,1618
319,2021-11-16,Tekirdağ,17,1195
320,2021-11-17,Bartın,9,1377
321,2021-11-18,Bilecik,13,1125
322,2021-11-19,Uşak,15,1940
323,2021-11-20,Osmaniye,13,1220
324,2021-11-21,Zonguldak,14,1791
325,2021-11-22,Yozgat,1,1273
326,2021-11-23,Şırnak,10,1623
327,2021-11-24,Adıyaman,7,1589
328,2021-11-25,Van,17,1847
329,2021-11-26,Edirne,7,1024
330,2021-11-27,Aydın,5,1446
331,2021-11-28,Edirne,15,1471
332,2021-11-29,Bolu,4,1029
333,2021-11-30,Elazığ,7,1377
334,2021-12-01,Hakkari,5,1272
335,2021-12-02,Bartın,5,1727
336,2021-12-03,Balıkesir,11,1815
337,2021-12-04,Rize,8,1292
338,2021-12-05,Şanlıurfa,12,1169
339,2021-12-06,Karaman,6,1343
340,2021-12-07,Giresun,7,1180
341,2021-12-08,Tokat,2,1142
342,2021-12-09,Trabzon,9,1353
343,2021-12-10,Edirne,14,1654
344,2021-12-11,Nevşehir,8,1311
345,2021-12-12,Hatay,11,1135
346,2021-12-13,Muş,2,1953
347,2021-12-14,Tokat,2,1213
348,2021-12-15,Çankırı,7,1819
349,2021-12-16,Düzce,14,1609
350,2021-12-17,Kütahya,16,1824
351,2021-12-18,Bayburt,1,1140
352,2021-12-19,Muş,9,1533
353,2021-12-20,Samsun,10,1490
354,2021-12-21,Yozgat,5,1709
355,2021-12-22,Malatya,11,1697
356,2021-12-23,Elazığ,4,1211
357,2021-12-24,Çanakkale,16,1948
358,2021-12-25,Tokat,9,1022
359,2021-12-26,Rize,11,1025
360,2021-12-27,Hakkari,12,1744
361,2021-12-28,Kırşehir,2,1126
362,2021-12-29,Artvin,12,1295
363,2021-12-30,Uşak,14,1615
